…
Confirm that the coordinates in the geometry column are the correct UTMs.


~~~r
blockgroups
~~~
{:.input}
~~~
Simple feature collection with 147 features and 6 fields
geometry type:  POLYGON
dimension:      XY
bbox:           xmin: 401938.3 ymin: 4759734 xmax: 412486.4 ymax: 4771049
epsg (SRID):    32618
proj4string:    +proj=utm +zone=18 +datum=WGS84 +units=m +no_defs
# A tibble: 147 x 7
   BKG_KEY      Shape_Leng Shape_Area BKG_KEY_1    Shape_Le_1 Shape_Ar_1
   <chr>             <dbl>      <dbl> <chr>             <dbl>      <dbl>
 1 360670001001     13520.   6135184. 360670001001     13520.   6135184.
 2 360670003002      2547.    301840. 360670003002      2547.    301840.
 3 360670003001      2678.    250998. 360670003001      2678.    250998.
 4 360670002001      3392.    656276. 360670002001      3392.    656276.
 5 360670004004      2224.    301086. 360670004004      2224.    301086.
 6 360670004001      3263.    606495. 360670004001      3263.    606495.
 7 360670004003      2878.    274532. 360670004003      2878.    274532.
 8 360670004002      3606.    331035. 360670004002      3606.    331035.
 9 360670010001      2951.    376786. 360670010001      2951.    376786.
10 360670010003      2868.    265836. 360670010003      2868.    265836.
# ... with 137 more rows, and 1 more variable: geometry <sf_geometry [m]>
…
